<svg xmlns="http://www.w3.org/2000/svg" width="16" height="8" viewBox="0 0 16 8">
    <g id="ico1" fill="none" fill-rule="evenodd" stroke="#353535" stroke-linecap="round" stroke-linejoin="round" opacity=".5">
        <path d="M9.91 1h1.908a3.182 3.182 0 1 1 0 6.364H9.91m-3.818 0H4.18a3.182 3.182 0 0 1 0-6.364h1.91M5.455 4.182h5.09"/>
    </g>
    <g id="ico2" fill="none" fill-rule="evenodd" stroke="#FFF" stroke-linecap="round" stroke-linejoin="round" opacity=".5">
        <path d="M9.91 1h1.908a3.182 3.182 0 1 1 0 6.364H9.91m-3.818 0H4.18a3.182 3.182 0 0 1 0-6.364h1.91M5.455 4.182h5.09"/>
    </g>
</svg>
