<svg xmlns="http://www.w3.org/2000/svg" width="18" height="14" viewBox="0 0 18 14">
    <g fill="#818181" fill-rule="evenodd">
        <path d="M0 0h18v2H0zM0 6h18v2H0zM0 12h18v2H0z"/>
    </g>
</svg>
