<svg xmlns="http://www.w3.org/2000/svg" width="14" height="12" viewBox="0 0 14 12">
    <g id="ico1" fill="none" fill-rule="evenodd" stroke="#818181" stroke-linecap="round" stroke-linejoin="round">
        <path d="M2.2 1h9.6c.66 0 1.2.54 1.2 1.2v7.2c0 .66-.54 1.2-1.2 1.2H2.2c-.66 0-1.2-.54-1.2-1.2V2.2C1 1.54 1.54 1 2.2 1z"/>
        <path d="M13 2.2L7 6.4 1 2.2"/>
    </g>
    <g id="ico2" fill="none" fill-rule="evenodd" stroke="#818181" stroke-linecap="round" stroke-linejoin="round">
        <path d="M2.2 1h9.6c.66 0 1.2.54 1.2 1.2v7.2c0 .66-.54 1.2-1.2 1.2H2.2c-.66 0-1.2-.54-1.2-1.2V2.2C1 1.54 1.54 1 2.2 1z"/>
        <path d="M13 2.2L7 6.4 1 2.2"/>
    </g>
</svg>
