<svg xmlns="http://www.w3.org/2000/svg">
    <symbol id="ico2" viewBox="0 0 77 77"> 
        <path d="M65.251 76.806a11.64 11.64 0 0 1-8.173-3.385l-16.64-16.64a6.66 6.66 0 0 1-1.683-6.602l.602-2.054-26.829-26.71a2.013 2.013 0 0 0-.749-.474l-2.093-.73a8.697 8.697 0 0 1-4.345-3.366L.013 8.855l.198-2.02L6.848.198 8.87 0l7.994 5.328A8.707 8.707 0 0 1 20.23 9.67l.736 2.112c.093.27.25.519.452.724l26.854 26.73 1.968-.548a6.672 6.672 0 0 1 6.502 1.712l16.679 16.675a11.64 11.64 0 0 1 3.385 8.173c0 6.374-5.184 11.558-11.555 11.558zM3.405 8.17l4.601 6.899a5.473 5.473 0 0 0 2.733 2.121l2.096.73c.74.26 1.415.688 1.959 1.235L42.29 46.528l.407 1.584-.87 2.97a3.473 3.473 0 0 0 .876 3.436l16.637 16.64a8.416 8.416 0 0 0 5.91 2.448c4.605 0 8.355-3.75 8.355-8.355 0-2.201-.89-4.352-2.448-5.91L54.48 42.666a3.47 3.47 0 0 0-3.386-.893l-2.867.797-1.555-.41-27.523-27.395a5.227 5.227 0 0 1-1.207-1.927l-.736-2.115a5.466 5.466 0 0 0-2.118-2.733L8.186 3.39l-4.781 4.78zm47.264 32.06h.032-.032z"/>
        <path d="M46.56 52.96v-3.2c1.51 0 3.2-1.37 3.2-3.2h3.2c0 3.408-2.992 6.4-6.4 6.4z"/>
    </symbol>
    <symbol id="ico1" viewBox="0 0 77 77">
        <path fill="#FEB100" d="M8.24 76.797C3.696 76.797 0 73.1 0 68.56c0-2.202.858-4.266 2.413-5.82l22.192-22.196 2.262 2.262L4.675 65.002A5.06 5.06 0 0 0 3.2 68.56a5.042 5.042 0 0 0 5.037 5.037 5.003 5.003 0 0 0 3.561-1.475L32.394 51.53l2.262 2.262-20.592 20.592a8.176 8.176 0 0 1-5.824 2.413zM54.093 34.355l-2.263-2.262 1.952-1.952 1.655-.381c5.011 1.734 10.413.5 14.118-3.206a13.567 13.567 0 0 0 3.955-8.714l-1.99-1.997-7.168 7.162-1.414.445c-5.476-.99-8.794-4.32-9.594-9.632l.451-1.37 7.165-7.165-1.997-1.997a13.59 13.59 0 0 0-8.717 3.956c-3.708 3.708-4.937 9.116-3.206 14.118l-.38 1.654-3.566 3.568-2.262-2.262 2.88-2.88c-1.664-5.888-.07-12.115 4.272-16.458A16.768 16.768 0 0 1 59.564.061l1.162.467 3.626 3.622v2.263l-7.702 7.702c.713 3.258 2.659 5.194 6.054 6.013l7.683-7.683h2.263l3.622 3.622.467 1.162a16.762 16.762 0 0 1-4.921 11.58c-4.343 4.343-10.57 5.937-16.458 4.273l-1.267 1.273z"/>
        <circle cx="8" cy="68.8" r="1.6" fill="#FEB100"/>
    </symbol>
</svg>
