<svg xmlns="http://www.w3.org/2000/svg" width="12" height="12" viewBox="0 0 12 12">
    <path fill="#353535" id="ico1" fill-rule="evenodd" d="M11.429 8.526v1.714a1.143 1.143 0 0 1-1.246 1.143A11.309 11.309 0 0 1 5.25 9.629 11.143 11.143 0 0 1 1.823 6.2 11.309 11.309 0 0 1 .069 1.246 1.143 1.143 0 0 1 1.206 0H2.92a1.143 1.143 0 0 1 1.143.983c.072.548.206 1.087.4 1.606.157.417.056.888-.257 1.205l-.726.726a9.143 9.143 0 0 0 3.429 3.429l.725-.726a1.143 1.143 0 0 1 1.206-.257 7.337 7.337 0 0 0 1.606.4c.574.08.997.58.983 1.16z" opacity=".5"/>
    <path fill="#FFF" id="ico2" fill-rule="evenodd" d="M11.429 8.526v1.714a1.143 1.143 0 0 1-1.246 1.143A11.309 11.309 0 0 1 5.25 9.629 11.143 11.143 0 0 1 1.823 6.2 11.309 11.309 0 0 1 .069 1.246 1.143 1.143 0 0 1 1.206 0H2.92a1.143 1.143 0 0 1 1.143.983c.072.548.206 1.087.4 1.606.157.417.056.888-.257 1.205l-.726.726a9.143 9.143 0 0 0 3.429 3.429l.725-.726a1.143 1.143 0 0 1 1.206-.257 7.337 7.337 0 0 0 1.606.4c.574.08.997.58.983 1.16z" opacity=".5"/>
</svg>
