<svg xmlns="http://www.w3.org/2000/svg" width="42" height="42" viewBox="0 0 42 42">
    <g fill="none" fill-rule="evenodd" stroke-linecap="round" stroke-linejoin="round" stroke-width="2">
        <path stroke="#0050AD" d="M21 1L1 11l20 10 20-10z"/>
        <path stroke="#FFB200" d="M1 31l20 10 20-10M1 21l20 10 20-10"/>
    </g>
</svg>
