<svg xmlns="http://www.w3.org/2000/svg" width="24" height="30" viewBox="0 0 24 30">
    <g fill="none" fill-rule="evenodd">
        <path fill="#ECECEC" d="M13 0H3a3 3 0 0 0-3 3v24a3 3 0 0 0 3 3h18a3 3 0 0 0 3-3V11L13 0z"/>
        <path fill="#DDD" d="M13 0v11h11"/>
    </g>
</svg>
